{
  "twitter": {
    "bearer_token": "AAAAAAAAAAAAAAAAAAAAAIDudAEAAAAA%2BKGT0Bk59z3AbTaT3LmfgngDSMY%3De5wpzHFngHAUpvbmkjmIrbvLFDZMh1h2uYckQcCBCs0xv0aExM",
    "account_to_follow": "bwytawrmwgdrwg"
  },
  "discord": {
    "webhook_url": "https://discord.com/api/webhooks/982049745252007996/A_Pl2XnCfSjyrxlYvqstSQ6LR2AbzxeC97GbIhtvvfQ0RHT8KrvkTd5kXFVShoxIshFo",
    "content_message": "CJ Speaks"
  }
}